
{                                                                   
            "name": "be.eloistree.stringchangelistener",          
    "references": [
],                                                              
    "optionalUnityReferences": [],                                  
    "includePlatforms": [],                                                  
    "excludePlatforms": [],                                         
    "allowUnsafeCode": false,                                       
    "overrideReferences": false,                                    
    "precompiledReferences": [],                                    
    "autoReferenced": true,                                         
    "defineConstraints": []                                         
}                                                                   